\relax 
\providecommand\hyper@newdestlabel[2]{}
\providecommand\HyperFirstAtBeginDocument{\AtBeginDocument}
\HyperFirstAtBeginDocument{\ifx\hyper@anchor\@undefined
\global\let\oldcontentsline\contentsline
\gdef\contentsline#1#2#3#4{\oldcontentsline{#1}{#2}{#3}}
\global\let\oldnewlabel\newlabel
\gdef\newlabel#1#2{\newlabelxx{#1}#2}
\gdef\newlabelxx#1#2#3#4#5#6{\oldnewlabel{#1}{{#2}{#3}}}
\AtEndDocument{\ifx\hyper@anchor\@undefined
\let\contentsline\oldcontentsline
\let\newlabel\oldnewlabel
\fi}
\fi}
\global\let\hyper@last\relax 
\gdef\HyperFirstAtBeginDocument#1{#1}
\providecommand\HyField@AuxAddToFields[1]{}
\providecommand\HyField@AuxAddToCoFields[2]{}
\citation{sutter2017assembly}
\citation{sutter2017assembly}
\citation{sutter2017assembly}
\citation{dolinsky2004pdb2pqr}
\citation{pasi2012palace}
\citation{ceres2015improving}
\bibstyle{unsrt}
\bibdata{sample}
\bibcite{sutter2017assembly}{\hyperlink {beamerbibsutter2017assembly}{1}}
\bibcite{dolinsky2004pdb2pqr}{\hyperlink {beamerbibdolinsky2004pdb2pqr}{2}}
\bibcite{pasi2012palace}{\hyperlink {beamerbibpasi2012palace}{3}}
\bibcite{ceres2015improving}{\hyperlink {beamerbibceres2015improving}{4}}
\@writefile{toc}{\beamer@endinputifotherversion {3.36pt}}
\@writefile{nav}{\beamer@endinputifotherversion {3.36pt}}
\pgfsyspdfmark {pgfid7}{5456674}{104481495}
\providecommand*\caption@xref[2]{\@setref\relax\@undefined{#1}}
\newlabel{figpdu}{{1}{1}{Left: Pdu BMCs assembled \textit {in vivo} in salmonella cells. Right: Purified BMCs demonstrate a variety of polyhedral shapes, with faces much larger than the area of a single building block.\relax }{Doc-Start}{}}
\@writefile{snm}{\beamer@slide {figpdu}{1}}
\newlabel{fig:hbond}{{\caption@xref {fig:hbond}{ on input line 384}}{1}{}{Doc-Start}{}}
\@writefile{snm}{\beamer@slide {fig:hbond}{1}}
\newlabel{sub@fig:hbond}{{}{1}{}{Doc-Start}{}}
\@writefile{snm}{\beamer@slide {sub@fig:hbond}{1}}
\newlabel{fig:pmf}{{\caption@xref {fig:pmf}{ on input line 384}}{1}{}{Doc-Start}{}}
\@writefile{snm}{\beamer@slide {fig:pmf}{1}}
\newlabel{sub@fig:pmf}{{}{1}{}{Doc-Start}{}}
\@writefile{snm}{\beamer@slide {sub@fig:pmf}{1}}
\pgfsyspdfmark {pgfid8}{60928813}{142479634}
\newlabel{fig:hbond}{{\caption@xref {fig:hbond}{ on input line 384}}{1}{}{Doc-Start}{}}
\@writefile{snm}{\beamer@slide {fig:hbond}{1}}
\newlabel{sub@fig:hbond}{{}{1}{}{Doc-Start}{}}
\@writefile{snm}{\beamer@slide {sub@fig:hbond}{1}}
\newlabel{fig:pmf}{{\caption@xref {fig:pmf}{ on input line 384}}{1}{}{Doc-Start}{}}
\@writefile{snm}{\beamer@slide {fig:pmf}{1}}
\newlabel{sub@fig:pmf}{{}{1}{}{Doc-Start}{}}
\@writefile{snm}{\beamer@slide {sub@fig:pmf}{1}}
\pgfsyspdfmark {pgfid9}{60928813}{61874401}
\newlabel{fig:dielectric}{{4}{1}{(a) Schematic of dielectric sphere simulation. The result of monovalent ions is trivial, almost no difference is observed with/without dielectric mismatch, therefore not shown. (b) Divalent ion distribution near a low dielectric sphere. The multivalent cations are slightly expelled from the surface due to image-charge effect.\relax }{Doc-Start}{}}
\@writefile{snm}{\beamer@slide {fig:dielectric}{1}}
\pgfsyspdfmark {pgfid10}{116400952}{142479634}
\newlabel{fig:charge_distri}{{5}{1}{Charge distribution and analysis of PduA hexamer proteins.\relax }{Doc-Start}{}}
\@writefile{snm}{\beamer@slide {fig:charge_distri}{1}}
\newlabel{fig:cg_dimer}{{6a}{1}{\relax }{Doc-Start}{}}
\@writefile{snm}{\beamer@slide {fig:cg_dimer}{1}}
\newlabel{sub@fig:cg_dimer}{{a}{1}{\relax }{Doc-Start}{}}
\@writefile{snm}{\beamer@slide {sub@fig:cg_dimer}{1}}
\newlabel{fig:2}{{6b}{1}{\relax }{Doc-Start}{}}
\@writefile{snm}{\beamer@slide {fig:2}{1}}
\newlabel{sub@fig:2}{{b}{1}{\relax }{Doc-Start}{}}
\@writefile{snm}{\beamer@slide {sub@fig:2}{1}}
\pgfsyspdfmark {pgfid11}{171873091}{142183908}
\newlabel{fig:shape}{{7}{1}{Possible assembled shape.\relax }{Doc-Start}{}}
\@writefile{snm}{\beamer@slide {fig:shape}{1}}
\pgfsyspdfmark {pgfid12}{171873091}{95544205}
\pgfsyspdfmark {pgfid13}{171873091}{70587534}
\pgfsyspdfmark {pgfid14}{171873091}{20998026}
\@writefile{nav}{\headcommand {\slideentry {0}{0}{1}{1/1}{}{0}}}
\@writefile{nav}{\headcommand {\beamer@framepages {1}{1}}}
\@writefile{nav}{\headcommand {\beamer@partpages {1}{1}}}
\@writefile{nav}{\headcommand {\beamer@subsectionpages {1}{1}}}
\@writefile{nav}{\headcommand {\beamer@sectionpages {1}{1}}}
\@writefile{nav}{\headcommand {\beamer@documentpages {1}}}
\@writefile{nav}{\headcommand {\def \inserttotalframenumber {1}}}
